{
  "name": "",
  "isOrdered": true,
  "folders": {
    "app": {
      "name": "app",
      "isOrdered": true,
      "folders": {},
      "files": {}
    },
    "bootstrap": {
      "name": "bootstrap",
      "isOrdered": true,
      "folders": {},
      "files": {}
    },
    "config": {
      "name": "config",
      "isOrdered": true,
      "folders": {},
      "files": {}
    },
    "database": {
      "name": "database",
      "isOrdered": true,
      "folders": {},
      "files": {}
    },
    "lang": {
      "name": "lang",
      "isOrdered": true,
      "folders": {},
      "files": {}
    },
    "public": {
      "name": "public",
      "isOrdered": true,
      "folders": {},
      "files": {}
    },
    "resources": {
      "name": "resources",
      "isOrdered": true,
      "folders": {},
      "files": {}
    },
    "routes": {
      "name": "routes",
      "isOrdered": true,
      "folders": {},
      "files": {}
    },
    "storage": {
      "name": "storage",
      "isOrdered": true,
      "folders": {},
      "files": {}
    },
    "tests": {
      "name": "tests",
      "isOrdered": true,
      "folders": {},
      "files": {}
    },
    "vendor": {
      "name": "vendor",
      "isOrdered": true,
      "folders": {},
      "files": {}
    }
  },
  "files": {
    "README": 0
  }
}